title,short_name,latitude,longitude,region,region_short
Afghanistan,AF,33.93911,67.709953,Asia & Pacific,WAS
British Indian Ocean Territory,IO,-6.343194,71.876519,Asia & Pacific,WAS
India,IN,20.593684,78.96288,Asia & Pacific,WAS
Maldives,MV,3.202778,73.22068,Asia & Pacific,WAS
Oman,OM,21.512583,55.923255,Middle east,WAS
Pakistan,PK,30.375321,69.345116,Asia & Pacific,WAS
Seychelles,SC,-4.679574,55.491977,Africa,WAS
Somalia,SO,5.152149,46.199616,Arab States,WAS
Sri Lanka,LK,7.873054,80.771797,Asia & Pacific,WAS
Yemen,YE,15.552727,48.516388,Middle east,WAS
