﻿lat,lon
33.93911,67.709953
-6.343194,71.876519
20.593684,78.96288
3.202778,73.22068
21.512583,55.923255
30.375321,69.345116
-4.679574,55.491977
5.152149,46.199616
7.873054,80.771797
15.552727,48.516388
